<svg width="121" height="120" viewBox="0 0 121 120" fill="none" xmlns="http://www.w3.org/2000/svg">
    <path d="M97.9764 20.3999H23.0244C18.5724 20.3999 15.0084 23.3159 14.9004 27.0959V81.9839C14.9004 85.7399 18.5004 88.7999 23.0244 88.7999H58.1004V102H37.1004C36.623 102 36.1652 102.19 35.8276 102.527C35.49 102.865 35.3004 103.323 35.3004 103.8C35.3004 104.277 35.49 104.735 35.8276 105.073C36.1652 105.41 36.623 105.6 37.1004 105.6H83.9004C84.3778 105.6 84.8356 105.41 85.1732 105.073C85.5107 104.735 85.7004 104.277 85.7004 103.8C85.7004 103.323 85.5107 102.865 85.1732 102.527C84.8356 102.19 84.3778 102 83.9004 102H61.7004V88.7999H97.9764C102.5 88.7999 106.1 85.7399 106.1 81.9839V27.2159C106.1 23.4599 102.5 20.3999 97.9764 20.3999ZM102.5 81.9839C102.5 83.7239 100.424 85.1999 97.9764 85.1999H23.0244C20.6244 85.1999 18.5004 83.7239 18.5004 81.9839V27.1439C18.5004 25.4159 20.5764 23.9999 23.0244 23.9999H97.9764C100.376 23.9999 102.5 25.4759 102.5 27.2159V81.9839Z" fill="url(#paint0_linear)"/>
    <path d="M66.8239 43.9562C66.4015 43.7456 65.9132 43.7093 65.4643 43.8552C65.0154 44.0011 64.6418 44.3175 64.4239 44.7362L54.7279 63.6002C54.6199 63.8106 54.5545 64.0402 54.5353 64.2759C54.516 64.5115 54.5434 64.7487 54.6158 64.9738C54.6883 65.1989 54.8043 65.4075 54.9574 65.5877C55.1104 65.768 55.2975 65.9163 55.5079 66.0242C55.7183 66.1322 55.9478 66.1976 56.1835 66.2169C56.4192 66.2361 56.6563 66.2087 56.8814 66.1363C57.1065 66.0638 57.3151 65.9478 57.4954 65.7947C57.6756 65.6417 57.8239 65.4546 57.9319 65.2442L67.6039 46.3442C67.8108 45.9231 67.845 45.4377 67.6993 44.9917C67.5536 44.5456 67.2395 44.1741 66.8239 43.9562Z" fill="url(#paint1_linear)"/>
    <path d="M78.3317 43.2956C77.9905 42.9777 77.5392 42.8046 77.0729 42.8128C76.6066 42.821 76.1616 43.0099 75.8319 43.3397C75.5021 43.6695 75.3132 44.1144 75.3049 44.5807C75.2967 45.0471 75.4698 45.4984 75.7877 45.8396L84.7637 54.8036L75.7877 63.7676C75.6109 63.9324 75.469 64.1311 75.3707 64.3519C75.2723 64.5727 75.2194 64.8111 75.2151 65.0527C75.2109 65.2944 75.2553 65.5345 75.3458 65.7586C75.4364 65.9828 75.5711 66.1864 75.7421 66.3573C75.913 66.5282 76.1166 66.663 76.3407 66.7535C76.5648 66.844 76.8049 66.8885 77.0466 66.8842C77.2883 66.88 77.5266 66.8271 77.7474 66.7287C77.9682 66.6303 78.167 66.4884 78.3317 66.3116L88.5797 56.0756C88.9168 55.7381 89.1061 55.2806 89.1061 54.8036C89.1061 54.3266 88.9168 53.8691 88.5797 53.5316L78.3317 43.2956Z" fill="url(#paint2_linear)"/>
    <path d="M46.5801 43.296C46.2426 42.9589 45.7851 42.7695 45.3081 42.7695C44.8311 42.7695 44.3736 42.9589 44.0361 43.296L33.7881 53.5439C33.4511 53.8814 33.2617 54.3389 33.2617 54.816C33.2617 55.293 33.4511 55.7505 33.7881 56.088L44.0361 66.336C44.3774 66.6539 44.8287 66.827 45.295 66.8188C45.7613 66.8105 46.2062 66.6216 46.536 66.2918C46.8658 65.9621 47.0547 65.5171 47.063 65.0508C47.0712 64.5845 46.8981 64.1332 46.5801 63.792L37.6041 54.8279L46.5801 45.8399C46.9172 45.5024 47.1065 45.0449 47.1065 44.5679C47.1065 44.0909 46.9172 43.6335 46.5801 43.296Z" fill="url(#paint3_linear)"/>
    <defs>
        <linearGradient id="paint0_linear" x1="114.971" y1="-7.69798" x2="3.97708" y2="-1.29579" gradientUnits="userSpaceOnUse">
            <stop stop-color="#1FAAFF"/>
            <stop offset="1" stop-color="#6100FF"/>
        </linearGradient>
        <linearGradient id="paint1_linear" x1="69.078" y1="36.3615" x2="52.9039" y2="36.8761" gradientUnits="userSpaceOnUse">
            <stop stop-color="#1FAAFF"/>
            <stop offset="1" stop-color="#6100FF"/>
        </linearGradient>
        <linearGradient id="paint2_linear" x1="90.4573" y1="34.8739" x2="73.5112" y2="35.4008" gradientUnits="userSpaceOnUse">
            <stop stop-color="#1FAAFF"/>
            <stop offset="1" stop-color="#6100FF"/>
        </linearGradient>
        <linearGradient id="paint3_linear" x1="48.4532" y1="34.8383" x2="31.5637" y2="35.3622" gradientUnits="userSpaceOnUse">
            <stop stop-color="#1FAAFF"/>
            <stop offset="1" stop-color="#6100FF"/>
        </linearGradient>
    </defs>
</svg>
