<svg width="45" height="45" viewBox="0 0 45 45" fill="none" xmlns="http://www.w3.org/2000/svg">
    <path fill-rule="evenodd" clip-rule="evenodd" d="M9.03938 3.01926C13.5366 2.11926 19.4513 2.00114 23.4956 6.03989C23.6261 6.17072 23.7296 6.326 23.8 6.49683C23.8705 6.66767 23.9066 6.85072 23.9062 7.03551V37.973C23.9067 38.2515 23.8245 38.5239 23.6701 38.7556C23.5156 38.9873 23.2958 39.168 23.0385 39.2746C22.7812 39.3812 22.4981 39.4091 22.225 39.3546C21.9518 39.3002 21.7011 39.1658 21.5044 38.9686C19.1334 36.5949 15.5559 35.9902 11.745 36.3811C7.965 36.7749 4.26375 38.1165 2.03625 39.2302C1.82186 39.3376 1.58355 39.3885 1.34398 39.3778C1.10441 39.3672 0.871535 39.2955 0.667487 39.1695C0.463439 39.0436 0.294997 38.8675 0.178168 38.6581C0.0613405 38.4486 8.04694e-06 38.2128 0 37.973L0 7.03551C8.75626e-06 6.77457 0.0726197 6.51878 0.20971 6.29676C0.3468 6.07473 0.542961 5.89523 0.77625 5.77833L1.40625 7.03551L0.77625 5.77833L0.781875 5.77551L0.793125 5.76989L0.829687 5.75301C1.03357 5.65147 1.23988 5.55488 1.44844 5.46333C3.88263 4.37322 6.42913 3.55363 9.04219 3.01926H9.03938ZM2.8125 7.93551V35.8018C5.19187 34.8371 8.28 33.9118 11.4581 33.5855C14.6728 33.2536 18.1716 33.5208 21.0938 35.1605V7.64864C18.1041 5.03583 13.6941 4.95989 9.59062 5.78114C7.26146 6.25767 4.98938 6.97984 2.8125 7.93551Z" fill="url(#paint0_linear)"/>
    <path fill-rule="evenodd" clip-rule="evenodd" d="M35.9606 3.01926C31.4663 2.11926 25.5488 2.00114 21.5044 6.03989C21.3739 6.17072 21.2704 6.326 21.2 6.49683C21.1295 6.66767 21.0934 6.85072 21.0938 7.03551V37.973C21.0933 38.2515 21.1755 38.5239 21.3299 38.7556C21.4844 38.9873 21.7042 39.168 21.9615 39.2746C22.2188 39.3812 22.5019 39.4091 22.775 39.3546C23.0482 39.3002 23.299 39.1658 23.4956 38.9686C25.8666 36.5949 29.4441 35.9902 33.255 36.3811C37.035 36.7749 40.7363 38.1165 42.9638 39.2302C43.1781 39.3376 43.4165 39.3885 43.656 39.3778C43.8956 39.3672 44.1285 39.2955 44.3325 39.1695C44.5366 39.0436 44.705 38.8675 44.8218 38.6581C44.9387 38.4486 45 38.2128 45 37.973V7.03551C45 6.77457 44.9274 6.51878 44.7903 6.29676C44.6532 6.07473 44.457 5.89523 44.2238 5.77833L43.5938 7.03551L44.2238 5.77833L44.2181 5.77551L44.2069 5.76989L44.1703 5.75301L44.0381 5.68833C43.3003 5.34382 42.5508 5.02488 41.7909 4.73208C39.8986 3.99985 37.9484 3.42692 35.9606 3.01926ZM42.1875 7.93551V35.8018C39.8081 34.8371 36.72 33.9118 33.5419 33.5855C30.3272 33.2536 26.8284 33.5208 23.9063 35.1605V7.64864C26.8959 5.03583 31.3059 4.95989 35.4094 5.78114C37.7386 6.25763 40.0106 6.9798 42.1875 7.93551Z" fill="url(#paint1_linear)"/>
    <defs>
        <linearGradient id="paint0_linear" x1="26.2316" y1="-9.65665" x2="-2.92455" y2="-8.63816" gradientUnits="userSpaceOnUse">
            <stop stop-color="#1FAAFF"/>
            <stop offset="1" stop-color="#6100FF"/>
        </linearGradient>
        <linearGradient id="paint1_linear" x1="47.3254" y1="-9.65665" x2="18.1692" y2="-8.63816" gradientUnits="userSpaceOnUse">
            <stop stop-color="#1FAAFF"/>
            <stop offset="1" stop-color="#6100FF"/>
        </linearGradient>
    </defs>
</svg>
