<svg width="779" height="118" viewBox="0 0 779 118" fill="none" xmlns="http://www.w3.org/2000/svg">
  <path d="M71.7255 71.9142C78.9838 64.646 78.9838 52.8618 71.7255 45.5936C64.4673 38.3254 52.6993 38.3254 45.4411 45.5936C38.1828 52.8618 38.1828 64.646 45.4411 71.9142C52.6993 79.1825 64.4673 79.1825 71.7255 71.9142Z" fill="#3DD8AB"/>
  <path d="M40.477 40.619C45.0734 36.0164 45.0734 28.554 40.477 23.9513C35.8807 19.3486 28.4285 19.3486 23.8322 23.9513C19.2358 28.554 19.2358 36.0164 23.8322 40.619C28.4285 45.2217 35.8807 45.2217 40.477 40.619Z" fill="#3DD8AB"/>
  <path d="M18.8627 18.9783C21.7258 16.1113 21.7258 11.4629 18.8627 8.59593C15.9996 5.72892 11.3577 5.72892 8.49459 8.59593C5.63152 11.4629 5.63152 16.1113 8.49459 18.9783C11.3577 21.8453 15.9996 21.8453 18.8627 18.9783Z" fill="#3DD8AB"/>
  <path d="M40.4809 93.5546C45.0773 88.9519 45.0773 81.4895 40.4809 76.8868C35.8846 72.2842 28.4324 72.2842 23.8361 76.8868C19.2397 81.4895 19.2397 88.9519 23.8361 93.5546C28.4324 98.1572 35.8846 98.1572 40.4809 93.5546Z" fill="#3DD8AB"/>
  <path d="M18.8685 108.913C21.7316 106.046 21.7316 101.398 18.8685 98.5305C16.0055 95.6635 11.3635 95.6635 8.50045 98.5305C5.63738 101.398 5.63738 106.046 8.50045 108.913C11.3635 111.78 16.0055 111.78 18.8685 108.913Z" fill="#3DD8AB"/>
  <path d="M93.3383 93.5624C97.9347 88.9597 97.9347 81.4973 93.3383 76.8947C88.742 72.292 81.2899 72.292 76.6935 76.8946C72.0972 81.4973 72.0972 88.9597 76.6935 93.5624C81.2899 98.1651 88.742 98.165 93.3383 93.5624Z" fill="#3DD8AB"/>
  <path d="M66.9087 113.875C71.505 109.272 71.505 101.81 66.9087 97.2072C62.3123 92.6045 54.8602 92.6045 50.2638 97.2071C45.6675 101.81 45.6675 109.272 50.2638 113.875C54.8602 118.478 62.3123 118.478 66.9087 113.875Z" fill="#3DD8AB"/>
  <path d="M113.594 67.1259C118.191 62.5232 118.191 55.0608 113.594 50.4581C108.998 45.8555 101.546 45.8555 96.9494 50.4581C92.353 55.0608 92.353 62.5232 96.9494 67.1259C101.546 71.7285 108.998 71.7285 113.594 67.1259Z" fill="#3DD8AB"/>
  <path d="M108.669 108.918C111.532 106.051 111.532 101.402 108.669 98.5354C105.806 95.6684 101.164 95.6684 98.3012 98.5354C95.4382 101.402 95.4382 106.051 98.3012 108.918C101.164 111.785 105.806 111.785 108.669 108.918Z" fill="#3DD8AB"/>
  <path d="M93.2993 40.6552C97.8956 36.0525 97.8956 28.5901 93.2993 23.9874C88.7029 19.3848 81.2508 19.3848 76.6544 23.9874C72.0581 28.5901 72.0581 36.0525 76.6544 40.6552C81.2508 45.2578 88.7029 45.2578 93.2993 40.6552Z" fill="#3DD8AB"/>
  <path d="M66.8696 20.3358C71.4659 15.7332 71.4659 8.27075 66.8696 3.66809C62.2733 -0.934582 54.8211 -0.934581 50.2248 3.66809C45.6284 8.27075 45.6284 15.7332 50.2248 20.3358C54.8211 24.9385 62.2733 24.9385 66.8696 20.3358Z" fill="#3DD8AB"/>
  <path d="M20.184 67.0839C24.7804 62.4812 24.7804 55.0188 20.184 50.4161C15.5877 45.8135 8.13556 45.8135 3.53921 50.4161C-1.05713 55.0188 -1.05713 62.4812 3.53921 67.0839C8.13556 71.6865 15.5877 71.6865 20.184 67.0839Z" fill="#3DD8AB"/>
  <path d="M108.632 19.0193C111.495 16.1523 111.495 11.504 108.632 8.63695C105.769 5.76994 101.127 5.76994 98.2641 8.63695C95.4011 11.504 95.4011 16.1523 98.2641 19.0193C101.127 21.8863 105.769 21.8863 108.632 19.0193Z" fill="#3DD8AB"/>
  <path d="M215.171 57.3821C219.427 53.7223 221.82 48.3439 221.691 42.7275C221.691 29.7828 211.106 21.332 198.081 21.332H168.805V96.2302H200.212C213.562 96.2302 224.358 87.5675 224.358 74.326C224.527 67.4428 221.028 60.9888 215.171 57.3821ZM200.212 80.1695H185.895V68.3836V49.1645V37.3786H198.074C202.025 37.3786 204.594 40.1626 204.594 44.0135C204.594 47.8644 201.919 50.6483 198.074 50.6483H194.045V65.8399H200.212C204.488 65.8399 207.268 68.8359 207.268 73.0047C207.268 77.1736 204.488 80.1695 200.212 80.1695Z" fill="black"/>
  <path d="M268.586 19.8335C247.109 19.8335 229.699 37.2675 229.699 58.7735C229.699 80.2794 247.109 97.7135 268.586 97.7135C290.062 97.7135 307.472 80.2794 307.472 58.7735C307.562 48.4188 303.493 38.4622 296.181 31.14C288.869 23.8179 278.926 19.744 268.586 19.8335ZM268.586 81.0239C256.407 81.0239 246.789 72.1421 246.789 58.7735C246.789 45.4049 256.407 36.5372 268.586 36.5372C280.765 36.5372 290.382 45.419 290.382 58.7876C290.382 72.1562 280.765 81.0522 268.586 81.0522V81.0239Z" fill="black"/>
  <path fill-rule="evenodd" clip-rule="evenodd" d="M358.749 61.982L329.903 21.332H317.082V96.2161H334.179V55.5662L363.025 96.2161H375.839V21.332H358.749V61.982Z" fill="black"/>
  <path fill-rule="evenodd" clip-rule="evenodd" d="M470.922 47.0017C470.939 40.1864 468.243 33.6454 463.431 28.8263C458.618 24.0072 452.086 21.3074 445.28 21.3243L415.369 21.3242V96.2225H432.459V74.8977V55.6786V37.378H445.28C449.98 37.378 453.825 41.5468 453.825 47.0087C453.825 52.4706 449.98 56.6395 445.28 56.6395H440.581V71.6192L454.693 96.2225H473.039L457.12 68.7292C465.369 64.5462 470.922 56.2014 470.922 47.0017Z" fill="#3DD8AB"/>
  <path d="M500.084 21.332L474.682 96.2302H493.38L497.12 84.4656H524.893L528.633 96.2302H547.325L521.923 21.332H500.084ZM502.201 68.4048L510.964 40.9116L519.721 68.4048H502.201Z" fill="#3DD8AB"/>
  <path fill-rule="evenodd" clip-rule="evenodd" d="M543.029 37.8026H562.264V96.2161H579.354V37.8026H598.582V21.332H543.029V37.8026Z" fill="#3DD8AB"/>
  <path d="M623.151 21.332H606.061V96.2161H623.151V21.332Z" fill="#3DD8AB"/>
  <path d="M671.656 19.8336C650.181 19.8414 632.778 37.2789 632.783 58.783C632.788 80.2872 650.2 97.7162 671.674 97.7136C693.149 97.711 710.556 80.2777 710.556 58.7736C710.646 48.4164 706.575 38.4576 699.26 31.1351C691.945 23.8125 681.998 19.7403 671.656 19.8336ZM671.656 81.024C659.477 81.024 649.859 72.1422 649.859 58.7736C649.859 45.405 659.477 36.5373 671.656 36.5373C683.834 36.5373 693.452 45.4191 693.452 58.7877C693.452 72.1564 683.834 81.0523 671.656 81.0523V81.024Z" fill="#3DD8AB"/>
  <path fill-rule="evenodd" clip-rule="evenodd" d="M761.819 21.332V61.982L732.973 21.332H720.152V96.2161H737.249V55.5662L766.095 96.2161H778.909V21.332H761.819Z" fill="#3DD8AB"/>
</svg>
