<svg width="164" height="33" viewBox="0 0 164 33" fill="none" xmlns="http://www.w3.org/2000/svg">
    <g opacity="0.2">
        <g clip-path="url(#clip0)">
            <path d="M111.605 4.98012C112.84 4.63518 114.048 4.66171 115.283 5.03319C115.524 5.29853 115.793 5.48427 116.142 5.53734C118.047 7.23551 118.477 9.27863 117.511 11.6402C116.893 12.4362 116.168 13.1526 115.309 13.7363C114.746 13.8955 114.209 14.1078 113.645 14.1874C110.478 14.6385 108.223 12.7546 107.901 9.38476C107.767 8.005 107.848 6.65176 108.196 5.29853C108.626 3.57382 109.673 2.37979 111.471 1.98178C113.028 1.63684 114.638 1.42457 116.195 1.05309C117.349 0.787751 117.215 1.6103 117.43 2.24712C117.725 3.14928 117.135 3.14928 116.544 3.30848C114.907 3.70649 113.189 3.81263 111.605 4.42291C111.122 4.58211 110.585 4.68825 110.29 5.21893C110.881 5.45773 111.176 4.95359 111.605 4.98012ZM112.947 6.89057C111.686 6.86404 110.639 7.95193 110.612 9.27863C110.585 10.6319 111.659 11.8259 112.947 11.8524C114.182 11.879 115.256 10.7645 115.283 9.43783C115.309 8.0846 114.236 6.9171 112.947 6.89057Z" fill="#545454"/>
            <path d="M85.3013 12.9668C85.3013 13.9486 85.2744 14.9038 85.3013 15.8856C85.355 17.2653 84.335 16.6816 83.6908 16.7612C83.0734 16.8408 82.4024 16.9204 82.5098 15.8856C82.5903 15.063 82.5366 14.2139 82.5366 13.3914C82.0534 13.1526 81.7582 13.524 81.4092 13.6567C79.1009 14.6119 76.4435 13.9751 74.9941 12.1177C73.6789 10.393 73.652 7.89882 74.9673 6.17411C76.3899 4.31673 79.074 3.65338 81.3824 4.55554C81.8387 4.74128 82.2145 5.29849 82.7513 4.47594C83.1271 3.91872 85.006 4.39634 85.355 4.98008C85.3281 5.11275 85.3013 5.21889 85.2744 5.35156C85.2744 5.48423 85.3013 5.64343 85.3013 5.7761C83.2882 7.39468 83.1808 9.91541 85.0329 12.4627C85.0329 12.6749 85.0865 12.8607 85.3013 12.9668ZM76.9535 9.09285C76.9535 10.6053 78.054 11.7463 79.5035 11.7197C80.9261 11.6932 81.8924 10.6318 81.8924 9.09285C81.8924 7.63349 80.8187 6.54559 79.3961 6.54559C77.9467 6.54559 76.9535 7.58042 76.9535 9.09285Z" fill="#535353"/>
            <path d="M103.524 12.9937C101.431 14.6122 98.2633 14.4265 96.465 12.5426C94.6666 10.6852 94.586 7.84606 96.2771 5.90907C98.0755 3.83942 101.216 3.52101 103.524 5.16612C103.578 5.458 103.739 5.64373 103.981 5.7764C103.981 8.00526 103.981 10.2341 103.981 12.4364C103.766 12.5691 103.605 12.7548 103.524 12.9937Z" fill="#505050"/>
            <path d="M160.699 13.0464C158.525 14.6915 155.411 14.4262 153.559 12.4626C151.922 10.7114 151.868 7.76612 153.452 5.93528C155.223 3.89216 158.283 3.54722 160.672 5.13926C160.699 5.45767 160.887 5.66994 161.182 5.77607C161.182 8.00493 161.182 10.2073 161.209 12.4361C160.967 12.5422 160.78 12.728 160.699 13.0464Z" fill="#505050"/>
            <path d="M80.5239 26.8171C79.5844 28.1969 78.6718 29.5767 77.7323 30.9299C77.1687 31.7525 75.7192 32.177 74.8334 31.8586C74.404 31.6994 74.4845 31.4075 74.4845 31.1156C74.4845 28.4092 74.4845 25.7293 74.4845 23.0228C74.4845 21.8288 75.3703 22.3064 75.934 22.2533C76.4976 22.2268 77.2492 21.9614 77.2224 23.0493C77.1687 24.4291 77.2224 25.8354 77.5176 27.2948C78.4571 25.915 79.3697 24.5618 80.3091 23.182C80.846 22.386 82.3759 21.9084 83.2349 22.2533C83.6375 22.4125 83.557 22.7309 83.557 23.0228C83.557 25.7293 83.5301 28.4092 83.5838 31.1156C83.6107 32.2301 82.8054 31.8586 82.2686 31.8586C81.7049 31.8586 80.8191 32.2566 80.8728 31.0626C80.8997 29.6828 80.8728 28.2765 80.8728 26.8967C80.7118 26.8702 80.6312 26.8437 80.5239 26.8171Z" fill="#545454"/>
            <path d="M111.311 27.2953C112.277 25.889 113.217 24.4827 114.183 23.0764C114.666 22.3866 116.277 21.962 117.028 22.307C117.431 22.4927 117.324 22.8111 117.324 23.103C117.324 25.7564 117.297 28.4098 117.35 31.0632C117.377 32.2307 116.572 31.9123 115.982 31.9123C115.364 31.9123 114.586 32.2041 114.639 31.0366C114.693 29.6834 114.666 28.3036 114.425 26.8177C113.512 28.1444 112.492 29.3915 111.741 30.7978C111.016 32.1511 109.888 31.9388 108.761 31.9123C108.197 31.9123 108.305 31.4612 108.305 31.1428C108.305 28.4363 108.332 25.7564 108.278 23.0499C108.251 21.9355 109.056 22.307 109.566 22.307C110.13 22.307 111.016 21.8824 110.989 23.0764C110.962 24.4297 110.989 25.8094 110.989 27.1627C111.123 27.2157 111.231 27.2688 111.311 27.2953Z" fill="#545454"/>
            <path d="M134.634 9.09349C136.111 8.11173 136.728 6.81157 137.399 5.64407C138.097 4.45004 139.01 4.15817 140.271 4.2643C140.835 4.31737 141.05 4.47657 141.05 5.06032C141.023 7.76679 141.023 10.4467 141.023 13.1532C141.023 14.135 140.298 13.9227 139.788 13.8696C139.251 13.79 138.312 14.3738 138.285 13.1797C138.285 11.8265 138.285 10.4467 138.285 8.82815C137.265 9.5711 136.889 10.5263 136.325 11.2958C136.003 11.7204 135.628 12.1449 135.44 12.6225C134.93 13.9227 133.883 13.9757 132.702 13.9227C132.138 13.8961 131.923 13.7369 131.923 13.1532C131.923 10.4998 131.923 7.84639 131.87 5.19299C131.843 3.91936 132.755 4.37044 133.346 4.31737C134.044 4.23777 134.688 4.21123 134.608 5.27259C134.581 6.44009 134.634 7.63412 134.634 9.09349Z" fill="#545454"/>
            <path d="M104.572 29.2591C105.86 30.6123 105.833 30.8246 104.062 31.6206C101.351 32.8677 98.0494 31.7002 96.922 29.0999C95.7947 26.5261 97.0025 23.6073 99.633 22.5195C102.425 21.3785 105.672 22.6256 106.666 25.2525C107.524 27.4548 107.176 28.012 104.894 28.1447C103.149 28.1447 101.378 28.1447 99.5525 28.1447C100.465 29.7632 101.78 30.1878 103.176 29.2856C103.713 28.9407 104.089 28.8611 104.572 29.2591ZM101.727 26.3138C101.915 26.3138 102.102 26.3403 102.264 26.3138C102.827 26.1811 103.82 26.6588 103.901 26.0219C103.981 25.2259 103.122 24.7483 102.29 24.536C101.539 24.3238 100.868 24.5095 100.277 24.9606C99.9014 25.2259 99.4183 25.6239 99.5793 26.1281C99.7404 26.5526 100.277 26.3138 100.653 26.3403C101.029 26.3403 101.378 26.3138 101.727 26.3138Z" fill="#565656"/>
            <path d="M142.473 4.50229C142.715 4.44922 142.983 4.36962 143.225 4.34308C145.13 4.23695 145.13 4.26348 145.291 6.06779C145.265 6.65154 145.238 7.20875 145.184 7.8721C145.828 7.6333 146.07 7.26182 146.285 6.86381C146.526 6.57194 146.741 6.3066 146.982 6.01472C148.164 4.39615 149.774 4.02467 151.653 4.44922C150.794 5.40444 149.989 6.41273 149.076 7.31489C148.405 7.97824 148.351 8.48239 148.942 9.22534C150.042 10.6847 151.089 12.1971 152.217 13.7626C150.016 14.1872 148.298 14.0545 147.358 11.8787C147.17 11.4277 146.875 10.552 146.285 10.7643C145.587 11.0296 145.05 11.693 145.184 12.6482C145.238 13.0197 145.453 13.7096 144.916 13.8157C144.191 13.9749 143.413 13.9219 142.661 13.7892C142.285 13.7096 142.446 13.1789 142.419 12.8605C142.393 10.2602 142.393 7.65983 142.393 5.0595C142.446 4.84723 142.473 4.66149 142.473 4.50229Z" fill="#545454"/>
            <path d="M93.6759 25.9681C93.8907 26.3927 93.9175 26.8438 93.8638 27.2948C93.5686 27.5071 93.6222 27.6663 93.9175 27.8255C94.0785 28.7542 94.2664 29.6829 94.4275 30.6116H94.4543C91.7702 30.7973 89.086 30.7973 86.375 30.6116H86.4018C86.7776 28.0909 87.1802 25.5436 87.5023 23.0229C87.5829 22.3595 87.9587 22.2799 88.4955 22.2799C89.7034 22.3064 90.9112 22.333 92.1191 22.2799C92.978 22.2268 93.3538 22.4922 93.3538 23.3678C93.3538 24.0577 93.488 24.7741 93.5686 25.464C93.2733 25.6763 93.3538 25.8355 93.6759 25.9681Z" fill="#535353"/>
            <path d="M122.638 4.84707C123.47 4.50213 124.275 4.15719 125.215 4.13066C127.389 4.07759 129.187 4.79401 130.234 6.75752C131.227 8.64143 131.093 10.5784 129.724 12.2235C128.275 13.9482 126.342 14.4258 124.141 13.8952C123.631 13.7625 123.148 13.5237 122.638 13.3114C122.45 13.1522 122.262 12.993 122.074 12.8338C122.047 12.6215 122.02 12.4093 121.967 12.2235C121.94 10.0477 121.886 7.89848 121.859 5.72269C121.94 5.59002 121.994 5.43082 122.074 5.29815C122.262 5.16548 122.45 5.00628 122.638 4.84707ZM125.456 6.51871C124.007 6.49218 122.879 7.63314 122.879 9.11905C122.879 10.6049 123.926 11.6928 125.322 11.7194C126.745 11.7194 127.926 10.5519 127.926 9.09251C127.899 7.63314 126.879 6.54525 125.456 6.51871Z" fill="#545454"/>
            <path d="M85.3016 5.77609C85.3016 5.64342 85.2748 5.48421 85.2748 5.35154C85.5164 5.32501 85.7311 5.27194 85.8653 5.03313C88.8984 3.54723 91.9852 4.18405 93.4346 6.57211C94.5888 8.45602 94.3473 10.8706 92.8978 12.4892C91.3678 14.1343 88.7642 14.6119 86.6169 13.6301C86.1874 13.4179 85.7579 13.2056 85.3285 12.9668C85.1137 12.8607 85.06 12.6749 85.0332 12.4627C85.4895 12.1442 85.2748 11.6666 85.3016 11.2686C85.3016 9.43778 85.3016 7.60693 85.3016 5.77609ZM86.2679 9.19897C86.2679 10.7379 87.2879 11.7728 88.7374 11.7462C90.1063 11.7197 91.2068 10.5787 91.2336 9.14591C91.2336 7.66 90.2136 6.57211 88.8179 6.54557C87.2879 6.54557 86.2679 7.60693 86.2679 9.19897Z" fill="#565656"/>
            <path d="M121.966 12.2767C121.993 12.489 122.02 12.7013 122.074 12.887C121.698 14.1341 121.966 15.4343 121.913 16.7079C119.121 17.0794 119.121 17.0794 119.121 14.3729C119.121 11.0827 119.121 7.76596 119.121 4.47575C120.168 4.58188 121.537 3.54706 122.074 5.35137C121.993 5.48404 121.939 5.64324 121.859 5.77591C120.034 7.39449 119.846 10.4724 121.51 12.2237C121.671 12.3829 121.805 12.3298 121.966 12.2767Z" fill="#595959"/>
            <path d="M94.4284 30.5859C94.4284 30.5859 94.4016 30.6125 94.4284 30.5859C95.0995 30.8247 96.3074 30.0287 96.2805 31.6738C96.2537 32.7087 96.0121 33.0271 94.9384 33.0005C91.9053 32.9209 88.8722 32.974 85.8391 32.974C85.007 32.974 84.4434 33.0005 84.4434 31.8596C84.4434 30.6921 84.9265 30.5329 85.866 30.6125C86.0539 30.639 86.2149 30.5859 86.4028 30.5859H86.376C86.1075 31.5677 86.4565 31.9126 87.5033 31.8596C89.4091 31.78 91.3417 31.7534 93.2474 31.8596C94.3479 31.9392 94.5358 31.4616 94.4284 30.5859Z" fill="#5D5D5D"/>
            <path d="M104.009 5.77619C103.767 5.64352 103.58 5.45778 103.553 5.16591C104.09 5.05977 103.955 4.29029 104.707 4.23722C106.693 4.10455 106.827 4.15762 106.827 6.0946C106.827 8.27039 106.854 10.4196 106.801 12.5954C106.801 13.02 107.123 13.7895 106.425 13.7895C105.593 13.7895 104.573 14.3997 103.929 13.3118C103.848 13.1792 103.687 13.0996 103.553 12.9934C103.606 12.7281 103.794 12.5689 104.009 12.4362C106.076 10.8707 106.076 7.3417 104.009 5.77619Z" fill="#595959"/>
            <path d="M160.699 13.0466C160.753 12.7548 160.941 12.569 161.236 12.4363C163.222 11.2689 163.33 7.02342 161.209 5.77632C160.914 5.64365 160.726 5.45791 160.699 5.1395C161.317 5.19257 161.129 4.31695 161.853 4.26388C163.786 4.10468 163.947 4.18428 163.947 6.12126C163.947 8.29705 163.974 10.4463 163.92 12.6221C163.92 13.0466 164.242 13.8161 163.544 13.8161C162.739 13.7896 161.692 14.506 161.102 13.2854C161.075 13.1528 160.86 13.1262 160.699 13.0466Z" fill="#595959"/>
            <path d="M112.814 20.9799C112.277 20.9799 111.74 20.9534 111.23 20.9799C110.613 21.0064 110.264 20.9003 110.264 20.1573C110.264 19.4409 110.505 19.2552 111.176 19.2817C112.33 19.3348 113.485 19.3082 114.639 19.2817C115.229 19.2552 115.444 19.4674 115.39 20.0512C115.364 20.5553 115.444 21.033 114.693 21.0064C114.048 20.9534 113.431 20.9799 112.814 20.9799Z" fill="#505050"/>
            <path d="M93.6757 25.9692C93.3802 25.8365 93.2727 25.6773 93.5951 25.4385C93.622 25.6242 93.6488 25.7834 93.6757 25.9692Z" fill="#5D5D5D"/>
            <path d="M93.9155 27.8256C93.6201 27.6664 93.5395 27.5072 93.8618 27.2949C93.9693 27.4541 93.9961 27.6399 93.9155 27.8256Z" fill="#5D5D5D"/>
        </g>
        <path fill-rule="evenodd" clip-rule="evenodd" d="M30.3865 16.6134L23.2561 9.55762L0 32.5702H46.5121L40.3447 26.4674L40.3541 26.5261H28.7959L30.3865 16.6134Z" fill="#5AB031"/>
        <path fill-rule="evenodd" clip-rule="evenodd" d="M36.0993 0H33.054L30.3887 16.6111L40.3455 26.4637L36.0993 0Z" fill="#4E4E4E"/>
    </g>
    <defs>
        <clipPath id="clip0">
            <rect x="74" y="1" width="90" height="32" fill="white"/>
        </clipPath>
    </defs>
</svg>
