<svg width="20" height="24" viewBox="0 0 20 24" fill="none" xmlns="http://www.w3.org/2000/svg">
    <g clip-path="url(#clip0)">
        <path d="M19.1146 4.94792C19.3576 5.19097 19.566 5.52083 19.7396 5.9375C19.9132 6.35417 20 6.73611 20 7.08333V22.0833C20 22.4306 19.8785 22.7257 19.6354 22.9688C19.3924 23.2118 19.0972 23.3333 18.75 23.3333H1.25C0.902778 23.3333 0.607639 23.2118 0.364583 22.9688C0.121528 22.7257 0 22.4306 0 22.0833V1.25C0 0.902778 0.121528 0.607639 0.364583 0.364583C0.607639 0.121528 0.902778 0 1.25 0H12.9167C13.2639 0 13.6458 0.0868056 14.0625 0.260417C14.4792 0.434028 14.809 0.642361 15.0521 0.885417L19.1146 4.94792ZM13.3333 1.77083V6.66667H18.2292C18.1424 6.41493 18.0469 6.23698 17.9427 6.13281L13.8672 2.05729C13.763 1.95313 13.5851 1.85764 13.3333 1.77083ZM18.3333 21.6667V8.33333H12.9167C12.5694 8.33333 12.2743 8.21181 12.0312 7.96875C11.7882 7.72569 11.6667 7.43056 11.6667 7.08333V1.66667H1.66667V21.6667H18.3333ZM11.6406 13.9453C11.9271 14.171 12.2917 14.4141 12.7344 14.6745C13.2465 14.6137 13.7543 14.5833 14.2578 14.5833C15.5339 14.5833 16.3021 14.796 16.5625 15.2214C16.7014 15.4123 16.7101 15.638 16.5885 15.8984C16.5885 15.9071 16.5842 15.9158 16.5755 15.9245L16.5495 15.9505V15.9635C16.4974 16.2934 16.1892 16.4583 15.625 16.4583C15.2083 16.4583 14.7092 16.3715 14.1276 16.1979C13.546 16.0243 12.9818 15.7943 12.4349 15.5078C10.5165 15.7161 8.8151 16.0764 7.33073 16.5885C6.0026 18.8628 4.95226 20 4.17969 20C4.04948 20 3.92795 19.9696 3.8151 19.9089L3.5026 19.7526C3.49392 19.7439 3.46788 19.7222 3.42448 19.6875C3.33767 19.6007 3.31163 19.4444 3.34635 19.2188C3.42448 18.8715 3.66753 18.4744 4.07552 18.0273C4.48351 17.5803 5.05642 17.1615 5.79427 16.7708C5.9158 16.6927 6.01562 16.7188 6.09375 16.849C6.11111 16.8663 6.11979 16.8837 6.11979 16.901C6.57118 16.1632 7.03559 15.3082 7.51302 14.3359C8.1033 13.1554 8.55469 12.0182 8.86719 10.9245C8.65885 10.2127 8.52648 9.5204 8.47005 8.84766C8.41363 8.17491 8.44184 7.62153 8.55469 7.1875C8.65017 6.84028 8.83247 6.66667 9.10156 6.66667H9.38802C9.58767 6.66667 9.73958 6.73177 9.84375 6.86198C10 7.04427 10.0391 7.33941 9.96094 7.7474C9.94358 7.79948 9.92622 7.8342 9.90885 7.85156C9.91753 7.8776 9.92188 7.91233 9.92188 7.95573V8.34635C9.90451 9.41406 9.84375 10.2474 9.73958 10.8464C10.217 12.27 10.8507 13.303 11.6406 13.9453ZM4.14062 19.2969C4.59201 19.0885 5.18663 18.4028 5.92448 17.2396C5.48177 17.5868 5.102 17.9514 4.78516 18.3333C4.46832 18.7153 4.25347 19.0365 4.14062 19.2969ZM9.32292 7.31771C9.19271 7.68229 9.18403 8.25521 9.29688 9.03646C9.30556 8.97569 9.33594 8.78472 9.38802 8.46354C9.38802 8.4375 9.4184 8.25087 9.47917 7.90365C9.48785 7.86892 9.50521 7.8342 9.53125 7.79948C9.52257 7.7908 9.51823 7.78212 9.51823 7.77344C9.50955 7.75608 9.50521 7.74306 9.50521 7.73438C9.49653 7.5434 9.4401 7.38715 9.33594 7.26563C9.33594 7.27431 9.3316 7.28299 9.32292 7.29167V7.31771ZM7.70833 15.9245C8.88021 15.4557 10.1128 15.1042 11.4062 14.8698C11.3889 14.8611 11.3325 14.8199 11.237 14.7461C11.1415 14.6723 11.072 14.6137 11.0286 14.5703C10.3689 13.9887 9.81771 13.2248 9.375 12.2786C9.14062 13.0252 8.78038 13.8802 8.29427 14.8438C8.03385 15.3299 7.83854 15.6901 7.70833 15.9245ZM16.1198 15.7161C15.9115 15.5078 15.3038 15.4036 14.2969 15.4036C14.9566 15.6467 15.4948 15.7682 15.9115 15.7682C16.033 15.7682 16.1111 15.7639 16.1458 15.7552C16.1458 15.7465 16.1372 15.7335 16.1198 15.7161Z" fill="url(#paint0_linear)"/>
    </g>
    <defs>
        <linearGradient id="paint0_linear" x1="21.9454" y1="-7.69504" x2="-2.42446" y2="-6.56945" gradientUnits="userSpaceOnUse">
            <stop stop-color="#1FAAFF"/>
            <stop offset="1" stop-color="#6100FF"/>
        </linearGradient>
        <clipPath id="clip0">
            <rect width="20" height="23.3333" fill="white"/>
        </clipPath>
    </defs>
</svg>
